{
  "defaults": {
    "xmlnamespace": "xnat",
    "datatype": "pet",
    "resource": "pet",
    "match": "^*.bin$"
  },
  "patterns": [
    {
      "type": "datatype",
      "source": "filename",
      "split": ["-", [1]],
      "modifiers": ["lower"]
    },
    {
      "type": "resource",
      "source": "filename-ext",
      "modifiers": ["upper"]
    },
    {
      "type": "subject",
      "source": "filename",
      "split": ["-", [2]]
    },
    {
      "type": "session",
      "source": "filename",
      "split": ["-", [1, 2, 3, 4, 5, 6], "-"]
    },
    {
      "type": "scan",
      "source": "filename-no-ext",
      "split": ["-", [7,8,9], "-"]
    },
    {
      "type": "sessionfield",
      "fieldname": "date",
      "source": "filename",
      "split": ["-", [3, 4, 5]]
    },
    {
      "type": "sessionfield",
      "fieldname": "modality",
      "source": "filename",
      "split": ["-", [1]],
      "modifiers": ["lower"]
    },
    {
      "type": "scanfield",
      "fieldname": "laterality",
      "source": "filename",
      "split": ["-", [7]]
    },
    {
      "type": "scanfield",
      "fieldname": "stereoscopy",
      "source": "filename-no-ext",
      "split": ["-", [8]]
    },
    {
      "type": "scanfield",
      "fieldname": "test",
      "source": "filename-no-ext",
      "range": [2,-2]
    }
  ]
}
